Panel Data and Fixed Effects Methods for Ecology
…
All females of both species

Body mass and sex for Nephila clavipes

Rows 1-50 (either using base R or the slice() function from tidyverse [use ?slice to load the help file])

Mass of the largest female (by mass) in each species

Male Pardosa ramulosa with body lengths less than 4 or greater than 6

#FIXME
# 1
M[M$Species == "Pardosa_ramulosa", ]

## # A tibble: 100 x 4
##    Species          Sex   BodyLength BodyMass
##    <chr>            <chr>      <dbl>    <dbl>
##  1 Pardosa_ramulosa M           3.67   0.0534
##  2 Pardosa_ramulosa M           4.96   0.169 
##  3 Pardosa_ramulosa M           5.21   0.224 
##  4 Pardosa_ramulosa M           5.18   0.106 
##  5 Pardosa_ramulosa M           4.79   0.147 
##  6 Pardosa_ramulosa M           6.05   0.221 
##  7 Pardosa_ramulosa M           3.97   0.0986
##  8 Pardosa_ramulosa M           2.75   0.0249
##  9 Pardosa_ramulosa M           4.22   0.0716
## 10 Pardosa_ramulosa M           3.41   0.0434
## #  with 90 more rows

M %>% filter(Species == "Pardosa_ramulosa")

## # A tibble: 100 x 4
##    Species          Sex   BodyLength BodyMass
##    <chr>            <chr>      <dbl>    <dbl>
##  1 Pardosa_ramulosa M           3.67   0.0534
##  2 Pardosa_ramulosa M           4.96   0.169 
##  3 Pardosa_ramulosa M           5.21   0.224 
##  4 Pardosa_ramulosa M           5.18   0.106 
##  5 Pardosa_ramulosa M           4.79   0.147 
##  6 Pardosa_ramulosa M           6.05   0.221 
##  7 Pardosa_ramulosa M           3.97   0.0986
##  8 Pardosa_ramulosa M           2.75   0.0249
##  9 Pardosa_ramulosa M           4.22   0.0716
## 10 Pardosa_ramulosa M           3.41   0.0434
## #  with 90 more rows

# 2
M[M$Sex == "F", ]

## # A tibble: 100 x 4
##    Species          Sex   BodyLength BodyMass
##    <chr>            <chr>      <dbl>    <dbl>
##  1 Pardosa_ramulosa F           6.44   0.319 
##  2 Pardosa_ramulosa F           5.93   0.465 
##  3 Pardosa_ramulosa F           4.59   0.0679
##  4 Pardosa_ramulosa F           6.91   0.252 
##  5 Pardosa_ramulosa F           6.12   0.113 
##  6 Pardosa_ramulosa F           7.91   0.255 
##  7 Pardosa_ramulosa F           6.04   0.252 
##  8 Pardosa_ramulosa F           6.80   0.201 
##  9 Pardosa_ramulosa F           5.14   0.161 
## 10 Pardosa_ramulosa F           4.94   0.0960
## #  with 90 more rows

M %>% filter(Sex == "F")

## # A tibble: 100 x 4
##    Species          Sex   BodyLength BodyMass
##    <chr>            <chr>      <dbl>    <dbl>
##  1 Pardosa_ramulosa F           6.44   0.319 
##  2 Pardosa_ramulosa F           5.93   0.465 
##  3 Pardosa_ramulosa F           4.59   0.0679
##  4 Pardosa_ramulosa F           6.91   0.252 
##  5 Pardosa_ramulosa F           6.12   0.113 
##  6 Pardosa_ramulosa F           7.91   0.255 
##  7 Pardosa_ramulosa F           6.04   0.252 
##  8 Pardosa_ramulosa F           6.80   0.201 
##  9 Pardosa_ramulosa F           5.14   0.161 
## 10 Pardosa_ramulosa F           4.94   0.0960
## #  with 90 more rows

# 3
M[M$Species == "Nephila_clavipes", c("BodyMass", "Sex")]

## # A tibble: 100 x 2
##    BodyMass Sex  
##       <dbl> <chr>
##  1     6.36 M    
##  2    12.1  M    
##  3     6.39 M    
##  4     3.91 M    
##  5     2.01 M    
##  6    12.8  M    
##  7     2.44 M    
##  8     7.69 M    
##  9    11.6  M    
## 10     2.93 M    
## #  with 90 more rows

M %>% filter(Species == "Nephila_clavipes") %>% 
  select(BodyMass, Sex)

## # A tibble: 100 x 2
##    BodyMass Sex  
##       <dbl> <chr>
##  1     6.36 M    
##  2    12.1  M    
##  3     6.39 M    
##  4     3.91 M    
##  5     2.01 M    
##  6    12.8  M    
##  7     2.44 M    
##  8     7.69 M    
##  9    11.6  M    
## 10     2.93 M    
## #  with 90 more rows

# 4
M[1:50, ]

## # A tibble: 50 x 4
##    Species          Sex   BodyLength BodyMass
##    <chr>            <chr>      <dbl>    <dbl>
##  1 Pardosa_ramulosa M           3.67   0.0534
##  2 Pardosa_ramulosa M           4.96   0.169 
##  3 Pardosa_ramulosa M           5.21   0.224 
##  4 Pardosa_ramulosa M           5.18   0.106 
##  5 Pardosa_ramulosa M           4.79   0.147 
##  6 Pardosa_ramulosa M           6.05   0.221 
##  7 Pardosa_ramulosa M           3.97   0.0986
##  8 Pardosa_ramulosa M           2.75   0.0249
##  9 Pardosa_ramulosa M           4.22   0.0716
## 10 Pardosa_ramulosa M           3.41   0.0434
## #  with 40 more rows

M %>% slice(1:50)

## # A tibble: 50 x 4
##    Species          Sex   BodyLength BodyMass
##    <chr>            <chr>      <dbl>    <dbl>
##  1 Pardosa_ramulosa M           3.67   0.0534
##  2 Pardosa_ramulosa M           4.96   0.169 
##  3 Pardosa_ramulosa M           5.21   0.224 
##  4 Pardosa_ramulosa M           5.18   0.106 
##  5 Pardosa_ramulosa M           4.79   0.147 
##  6 Pardosa_ramulosa M           6.05   0.221 
##  7 Pardosa_ramulosa M           3.97   0.0986
##  8 Pardosa_ramulosa M           2.75   0.0249
##  9 Pardosa_ramulosa M           4.22   0.0716
## 10 Pardosa_ramulosa M           3.41   0.0434
## #  with 40 more rows
…
## `summarise()` ungrouping output (override with `.groups` argument)

## # A tibble: 2 x 2
##   Species          max_BodyMass
##   <chr>                   <dbl>
## 1 Nephila_clavipes     1283.   
## 2 Pardosa_ramulosa        0.876

# 6
M[M$Species == "Pardosa_ramulosa" & 
    M$Sex == "M" &
    (M$BodyLength < 4 | M$BodyLength > 6), ]

## # A tibble: 22 x 4
##    Species          Sex   BodyLength BodyMass
##    <chr>            <chr>      <dbl>    <dbl>
##  1 Pardosa_ramulosa M           3.67   0.0534
##  2 Pardosa_ramulosa M           6.05   0.221 
##  3 Pardosa_ramulosa M           3.97   0.0986
##  4 Pardosa_ramulosa M           2.75   0.0249
##  5 Pardosa_ramulosa M           3.41   0.0434
##  6 Pardosa_ramulosa M           6.46   0.211 
##  7 Pardosa_ramulosa M           7.14   0.621 
##  8 Pardosa_ramulosa M           7.13   0.168 
##  9 Pardosa_ramulosa M           3.84   0.0522
## 10 Pardosa_ramulosa M           3.60   0.0832
## #  with 12 more rows

M %>% filter(Species == "Pardosa_ramulosa" & Sex == "M") %>% 
  filter(BodyLength < 4 | BodyLength > 6)

## # A tibble: 22 x 4
##    Species          Sex   BodyLength BodyMass
##    <chr>            <chr>      <dbl>    <dbl>
##  1 Pardosa_ramulosa M           3.67   0.0534
##  2 Pardosa_ramulosa M           6.05   0.221 
##  3 Pardosa_ramulosa M           3.97   0.0986
##  4 Pardosa_ramulosa M           2.75   0.0249
##  5 Pardosa_ramulosa M           3.41   0.0434
##  6 Pardosa_ramulosa M           6.46   0.211 
##  7 Pardosa_ramulosa M           7.14   0.621 
##  8 Pardosa_ramulosa M           7.13   0.168 
##  9 Pardosa_ramulosa M           3.84   0.0522
## 10 Pardosa_ramulosa M           3.60   0.0832
## #  with 12 more rows
…
